{
  "Checks": {
    "autoRebootCountDown": 3,
    "checkIntervalMinutes": 5,
    "currentDevblog": 0,
    "currentOxideBuild": 4919,
    "enableAutoChecks": true,
    "enableAutoReboot": false,
    "notifyOnlineAdmins": true
  },
  "Settings": {
    "ShowMinutes": [
      60,
      45,
      30,
      15,
      10,
      5,
      4,
      3,
      2,
      1
    ],
    "ShowSeconds": [
      50,
      40,
      30,
      20,
      10,
      5,
      4,
      3,
      2,
      1
    ]
  },
  "SimpleUI": {
    "SimpleUI_Enable": true,
    "SimpleUI_FontSize": 30,
    "SimpleUI_HideTimer": 10,
    "SimpleUI_Left": 0.1,
    "SimpleUI_MaxHeight": 0.05,
    "SimpleUI_MaxWidth": 0.8,
    "SimpleUI_Top": 0.1
  },
  "Timers": {
    "RebootTimes": {
      "11:15": "45",
      "23:30": "30"
    },
    "useTimers": false
  }
}