{
  "CanDespawnWhileOccupied": false,
  "CanFetchWhileBuildingBlocked": false,
  "CanFetchWhileOccupied": false,
  "CanSpawnWhileBuildingBlocked": false,
  "Cooldowns": {
    "FetchCarSeconds": 10.0,
    "FixCarSeconds": 60.0,
    "LoadPresetSeconds": 10.0,
    "SpawnCarSeconds": 10.0
  },
  "DeleteMatchingKeysFromPlayerInventoryOnDespawn": true,
  "DismountPlayersOnFetch": true,
  "EnableEffects": true,
  "FreshWaterAmount": -1,
  "FuelAmount": -1,
  "MaxPresetsPerPlayer": 10,
  "Presets": []
}