{
  "Settings": {
    "DefaultStack": 0,
    "NewCategoryDefaultSetting": 0,
    "StackHealthItems": true,
    "CategoryDefaultStack": {
      "Ammunition": 50000,
      "Weapon": 0,
      "Attire": 0,
      "Misc": 0,
      "Items": 0,
      "Construction": 50000,
      "Component": 0,
      "Traps": 0,
      "Electrical": 0,
      "Fun": 0,
      "Food": 50000,
      "Resources": 50000,
      "Tool": 50000,
      "Medical": 50000
    }
  }
}