{
  "Lockouts": {},
  "Players": {
    "76561199003490582": {
      "TotalRaids": 21,
      "Raids": 9
    },
    "76561198047320661": {
      "TotalRaids": 25,
      "Raids": 10
    },
    "76561198974383152": {
      "TotalRaids": 13,
      "Raids": 0
    },
    "76561198198243427": {
      "TotalRaids": 3,
      "Raids": 0
    },
    "76561198368531553": {
      "TotalRaids": 2,
      "Raids": 2
    },
    "76561198007141830": {
      "TotalRaids": 1,
      "Raids": 1
    }
  },
  "UI": {
    "76561198031919117": {
      "Enabled": true,
      "Lockouts": true,
      "Status": true
    },
    "76561198992432177": {
      "Enabled": true,
      "Lockouts": true,
      "Status": true
    },
    "76561198047320661": {
      "Enabled": true,
      "Lockouts": true,
      "Status": true
    },
    "76561198007141830": {
      "Enabled": true,
      "Lockouts": true,
      "Status": true
    },
    "76561199003490582": {
      "Enabled": true,
      "Lockouts": true,
      "Status": true
    },
    "76561198151210282": {
      "Enabled": true,
      "Lockouts": true,
      "Status": true
    },
    "76561198124476278": {
      "Enabled": true,
      "Lockouts": true,
      "Status": true
    },
    "76561198974383152": {
      "Enabled": true,
      "Lockouts": true,
      "Status": true
    },
    "76561198055056798": {
      "Enabled": true,
      "Lockouts": true,
      "Status": true
    },
    "76561198389472635": {
      "Enabled": true,
      "Lockouts": true,
      "Status": true
    },
    "76561198295356105": {
      "Enabled": true,
      "Lockouts": true,
      "Status": true
    },
    "76561197987685844": {
      "Enabled": true,
      "Lockouts": true,
      "Status": true
    },
    "76561198333428818": {
      "Enabled": true,
      "Lockouts": true,
      "Status": true
    },
    "76561198198798128": {
      "Enabled": true,
      "Lockouts": true,
      "Status": true
    },
    "76561199072906452": {
      "Enabled": true,
      "Lockouts": true,
      "Status": true
    },
    "76561198883774066": {
      "Enabled": true,
      "Lockouts": true,
      "Status": true
    },
    "76561198329237233": {
      "Enabled": true,
      "Lockouts": true,
      "Status": true
    },
    "76561199070442367": {
      "Enabled": true,
      "Lockouts": true,
      "Status": true
    },
    "76561198084536635": {
      "Enabled": true,
      "Lockouts": true,
      "Status": true
    },
    "76561197985804104": {
      "Enabled": true,
      "Lockouts": true,
      "Status": true
    },
    "76561198344059707": {
      "Enabled": true,
      "Lockouts": true,
      "Status": true
    },
    "76561198180433447": {
      "Enabled": true,
      "Lockouts": true,
      "Status": true
    },
    "76561198144169805": {
      "Enabled": true,
      "Lockouts": true,
      "Status": true
    },
    "76561198408033580": {
      "Enabled": true,
      "Lockouts": true,
      "Status": true
    },
    "76561198957278020": {
      "Enabled": true,
      "Lockouts": true,
      "Status": true
    },
    "76561198181973729": {
      "Enabled": true,
      "Lockouts": true,
      "Status": true
    },
    "76561199027824433": {
      "Enabled": true,
      "Lockouts": true,
      "Status": true
    },
    "76561198001599601": {
      "Enabled": true,
      "Lockouts": true,
      "Status": true
    },
    "76561197979216445": {
      "Enabled": true,
      "Lockouts": true,
      "Status": true
    },
    "76561198198243427": {
      "Enabled": true,
      "Lockouts": true,
      "Status": true
    },
    "76561198947689643": {
      "Enabled": true,
      "Lockouts": true,
      "Status": true
    },
    "76561198108751803": {
      "Enabled": true,
      "Lockouts": true,
      "Status": true
    },
    "76561198314246939": {
      "Enabled": true,
      "Lockouts": true,
      "Status": true
    },
    "76561198368531553": {
      "Enabled": true,
      "Lockouts": true,
      "Status": true
    },
    "76561198132012907": {
      "Enabled": true,
      "Lockouts": true,
      "Status": true
    },
    "76561198063492031": {
      "Enabled": true,
      "Lockouts": true,
      "Status": true
    },
    "76561197965976811": {
      "Enabled": true,
      "Lockouts": true,
      "Status": true
    },
    "76561198074009383": {
      "Enabled": true,
      "Lockouts": true,
      "Status": true
    },
    "76561198010722892": {
      "Enabled": true,
      "Lockouts": true,
      "Status": true
    },
    "76561198035796782": {
      "Enabled": true,
      "Lockouts": true,
      "Status": true
    },
    "76561198864927686": {
      "Enabled": true,
      "Lockouts": true,
      "Status": true
    },
    "76561198023227517": {
      "Enabled": true,
      "Lockouts": true,
      "Status": true
    },
    "76561198219002519": {
      "Enabled": true,
      "Lockouts": true,
      "Status": true
    },
    "76561199116432751": {
      "Enabled": true,
      "Lockouts": true,
      "Status": true
    },
    "76561198388438706": {
      "Enabled": true,
      "Lockouts": true,
      "Status": true
    },
    "76561198802068793": {
      "Enabled": true,
      "Lockouts": true,
      "Status": true
    },
    "76561199091401537": {
      "Enabled": true,
      "Lockouts": true,
      "Status": true
    }
  },
  "RaidTime": "02/22/2021 20:52:37",
  "TotalEvents": 118
}